<mxfile host="app.diagrams.net" agent="Mozilla/5.0 (X11; Linux x86_64) AppleWebKit/537.36 (KHTML, like Gecko) Chrome/128.0.0.0 Safari/537.36" version="24.7.12">
  <diagram name="Page-1" id="e7e014a7-5840-1c2e-5031-d8a46d1fe8dd">
    <mxGraphModel dx="1434" dy="794" grid="1" gridSize="10" guides="1" tooltips="1" connect="1" arrows="1" fold="1" page="1" pageScale="1" pageWidth="22222222" pageHeight="22222222222" background="none" math="0" shadow="0">
      <root>
        <mxCell id="0" />
        <mxCell id="1" parent="0" />
        <mxCell id="2" value="Biểu đồ hành động đăng ký/đăng nhập" style="swimlane;whiteSpace=wrap" parent="1" vertex="1">
          <mxGeometry x="299" y="136" width="570" height="690" as="geometry" />
        </mxCell>
        <mxCell id="5" value="" style="ellipse;shape=startState;fillColor=#000000;strokeColor=#ff0000;" parent="2" vertex="1">
          <mxGeometry x="280" y="40" width="30" height="30" as="geometry" />
        </mxCell>
        <mxCell id="6" value="" style="edgeStyle=elbowEdgeStyle;elbow=horizontal;verticalAlign=bottom;endArrow=open;endSize=8;strokeColor=#FF0000;endFill=1;rounded=0" parent="2" source="5" target="7" edge="1">
          <mxGeometry x="100" y="40" as="geometry">
            <mxPoint x="115" y="110" as="targetPoint" />
          </mxGeometry>
        </mxCell>
        <mxCell id="xdyBY22--xmkdYPoj8-D-44" value="" style="edgeStyle=orthogonalEdgeStyle;rounded=0;orthogonalLoop=1;jettySize=auto;html=1;" edge="1" parent="2" source="7" target="xdyBY22--xmkdYPoj8-D-41">
          <mxGeometry relative="1" as="geometry" />
        </mxCell>
        <mxCell id="7" value="Chọn đăng ký &#xa;hoặc đăng nhập" style="" parent="2" vertex="1">
          <mxGeometry x="240" y="100" width="110" height="50" as="geometry" />
        </mxCell>
        <mxCell id="xdyBY22--xmkdYPoj8-D-45" style="edgeStyle=orthogonalEdgeStyle;rounded=0;orthogonalLoop=1;jettySize=auto;html=1;entryX=1;entryY=0.5;entryDx=0;entryDy=0;exitX=1;exitY=0.5;exitDx=0;exitDy=0;" edge="1" parent="2" source="xdyBY22--xmkdYPoj8-D-41" target="xdyBY22--xmkdYPoj8-D-46">
          <mxGeometry relative="1" as="geometry">
            <mxPoint x="470" y="420" as="targetPoint" />
            <mxPoint x="316.25" y="220.0000000000001" as="sourcePoint" />
            <Array as="points">
              <mxPoint x="510" y="210" />
              <mxPoint x="510" y="420" />
            </Array>
          </mxGeometry>
        </mxCell>
        <mxCell id="xdyBY22--xmkdYPoj8-D-49" style="edgeStyle=orthogonalEdgeStyle;rounded=0;orthogonalLoop=1;jettySize=auto;html=1;entryX=1;entryY=0.5;entryDx=0;entryDy=0;" edge="1" parent="2" source="xdyBY22--xmkdYPoj8-D-41" target="xdyBY22--xmkdYPoj8-D-48">
          <mxGeometry relative="1" as="geometry" />
        </mxCell>
        <mxCell id="xdyBY22--xmkdYPoj8-D-41" value="" style="rhombus;whiteSpace=wrap;html=1;" vertex="1" parent="2">
          <mxGeometry x="273.75" y="190" width="42.5" height="40" as="geometry" />
        </mxCell>
        <mxCell id="xdyBY22--xmkdYPoj8-D-57" style="edgeStyle=orthogonalEdgeStyle;rounded=0;orthogonalLoop=1;jettySize=auto;html=1;" edge="1" parent="2" source="xdyBY22--xmkdYPoj8-D-46">
          <mxGeometry relative="1" as="geometry">
            <mxPoint x="294.25" y="470" as="targetPoint" />
          </mxGeometry>
        </mxCell>
        <mxCell id="xdyBY22--xmkdYPoj8-D-46" value="" style="rhombus;whiteSpace=wrap;html=1;" vertex="1" parent="2">
          <mxGeometry x="273" y="400" width="42.5" height="40" as="geometry" />
        </mxCell>
        <mxCell id="xdyBY22--xmkdYPoj8-D-47" value="[Đăng nhập]" style="text;html=1;align=center;verticalAlign=middle;whiteSpace=wrap;rounded=0;" vertex="1" parent="2">
          <mxGeometry x="370" y="170" width="80" height="30" as="geometry" />
        </mxCell>
        <mxCell id="xdyBY22--xmkdYPoj8-D-48" value="Màn hình đăng ký" style="rounded=0;whiteSpace=wrap;html=1;" vertex="1" parent="2">
          <mxGeometry x="70" y="190" width="110" height="40" as="geometry" />
        </mxCell>
        <mxCell id="xdyBY22--xmkdYPoj8-D-50" value="[Đăng ký]" style="text;html=1;align=center;verticalAlign=middle;whiteSpace=wrap;rounded=0;" vertex="1" parent="2">
          <mxGeometry x="193" y="170" width="80" height="30" as="geometry" />
        </mxCell>
        <mxCell id="xdyBY22--xmkdYPoj8-D-53" style="edgeStyle=orthogonalEdgeStyle;rounded=0;orthogonalLoop=1;jettySize=auto;html=1;" edge="1" parent="2" source="xdyBY22--xmkdYPoj8-D-51">
          <mxGeometry relative="1" as="geometry">
            <mxPoint x="125" y="270" as="targetPoint" />
            <Array as="points">
              <mxPoint x="250" y="330" />
              <mxPoint x="250" y="270" />
              <mxPoint x="125" y="270" />
            </Array>
          </mxGeometry>
        </mxCell>
        <mxCell id="xdyBY22--xmkdYPoj8-D-55" style="edgeStyle=orthogonalEdgeStyle;rounded=0;orthogonalLoop=1;jettySize=auto;html=1;" edge="1" parent="2" source="xdyBY22--xmkdYPoj8-D-51">
          <mxGeometry relative="1" as="geometry">
            <mxPoint x="270" y="420" as="targetPoint" />
            <Array as="points">
              <mxPoint x="125" y="385" />
              <mxPoint x="126" y="385" />
            </Array>
          </mxGeometry>
        </mxCell>
        <mxCell id="xdyBY22--xmkdYPoj8-D-51" value="Nhập thông tin" style="rounded=0;whiteSpace=wrap;html=1;" vertex="1" parent="2">
          <mxGeometry x="65" y="300" width="120" height="60" as="geometry" />
        </mxCell>
        <mxCell id="xdyBY22--xmkdYPoj8-D-52" style="edgeStyle=orthogonalEdgeStyle;rounded=0;orthogonalLoop=1;jettySize=auto;html=1;entryX=0.485;entryY=-0.046;entryDx=0;entryDy=0;entryPerimeter=0;" edge="1" parent="2" source="xdyBY22--xmkdYPoj8-D-48" target="xdyBY22--xmkdYPoj8-D-51">
          <mxGeometry relative="1" as="geometry">
            <Array as="points">
              <mxPoint x="123" y="240" />
              <mxPoint x="123" y="240" />
            </Array>
          </mxGeometry>
        </mxCell>
        <mxCell id="xdyBY22--xmkdYPoj8-D-54" value="Có lỗi" style="text;html=1;align=center;verticalAlign=middle;whiteSpace=wrap;rounded=0;" vertex="1" parent="2">
          <mxGeometry x="150" y="240" width="80" height="30" as="geometry" />
        </mxCell>
        <mxCell id="xdyBY22--xmkdYPoj8-D-56" value="Thành công" style="text;html=1;align=center;verticalAlign=middle;whiteSpace=wrap;rounded=0;" vertex="1" parent="2">
          <mxGeometry x="160" y="390" width="70" height="30" as="geometry" />
        </mxCell>
        <mxCell id="xdyBY22--xmkdYPoj8-D-63" value="" style="edgeStyle=orthogonalEdgeStyle;rounded=0;orthogonalLoop=1;jettySize=auto;html=1;" edge="1" parent="2" source="xdyBY22--xmkdYPoj8-D-58" target="xdyBY22--xmkdYPoj8-D-61">
          <mxGeometry relative="1" as="geometry" />
        </mxCell>
        <mxCell id="xdyBY22--xmkdYPoj8-D-65" style="edgeStyle=orthogonalEdgeStyle;rounded=0;orthogonalLoop=1;jettySize=auto;html=1;" edge="1" parent="2">
          <mxGeometry relative="1" as="geometry">
            <mxPoint x="291" y="454" as="targetPoint" />
            <mxPoint x="351.25" y="490" as="sourcePoint" />
            <Array as="points">
              <mxPoint x="419" y="490" />
              <mxPoint x="419" y="454" />
            </Array>
          </mxGeometry>
        </mxCell>
        <mxCell id="xdyBY22--xmkdYPoj8-D-58" value="Màn hình đăng nhập" style="rounded=0;whiteSpace=wrap;html=1;" vertex="1" parent="2">
          <mxGeometry x="234.25" y="470" width="120" height="60" as="geometry" />
        </mxCell>
        <mxCell id="xdyBY22--xmkdYPoj8-D-64" value="" style="edgeStyle=orthogonalEdgeStyle;rounded=0;orthogonalLoop=1;jettySize=auto;html=1;" edge="1" parent="2" source="xdyBY22--xmkdYPoj8-D-61" target="xdyBY22--xmkdYPoj8-D-62">
          <mxGeometry relative="1" as="geometry" />
        </mxCell>
        <mxCell id="xdyBY22--xmkdYPoj8-D-61" value="Màn hình chính" style="rounded=0;whiteSpace=wrap;html=1;" vertex="1" parent="2">
          <mxGeometry x="235" y="574" width="120" height="60" as="geometry" />
        </mxCell>
        <mxCell id="xdyBY22--xmkdYPoj8-D-62" value="" style="ellipse;shape=startState;fillColor=#000000;strokeColor=#ff0000;" vertex="1" parent="2">
          <mxGeometry x="279.25" y="650" width="30" height="30" as="geometry" />
        </mxCell>
        <mxCell id="xdyBY22--xmkdYPoj8-D-66" value="Có lỗi" style="text;html=1;align=center;verticalAlign=middle;whiteSpace=wrap;rounded=0;" vertex="1" parent="2">
          <mxGeometry x="331" y="424" width="60" height="30" as="geometry" />
        </mxCell>
        <mxCell id="xdyBY22--xmkdYPoj8-D-67" value="Biểu đồ hành động chọn lịch chiếu" style="swimlane;whiteSpace=wrap" vertex="1" parent="1">
          <mxGeometry x="260" y="920" width="450" height="420" as="geometry" />
        </mxCell>
        <mxCell id="xdyBY22--xmkdYPoj8-D-68" value="" style="ellipse;shape=startState;fillColor=#000000;strokeColor=#ff0000;" vertex="1" parent="xdyBY22--xmkdYPoj8-D-67">
          <mxGeometry x="80" y="40" width="30" height="30" as="geometry" />
        </mxCell>
        <mxCell id="xdyBY22--xmkdYPoj8-D-69" value="" style="edgeStyle=elbowEdgeStyle;elbow=horizontal;verticalAlign=bottom;endArrow=open;endSize=8;strokeColor=#FF0000;endFill=1;rounded=0" edge="1" parent="xdyBY22--xmkdYPoj8-D-67" source="xdyBY22--xmkdYPoj8-D-68" target="xdyBY22--xmkdYPoj8-D-71">
          <mxGeometry x="100" y="40" as="geometry">
            <mxPoint x="115" y="110" as="targetPoint" />
          </mxGeometry>
        </mxCell>
        <mxCell id="xdyBY22--xmkdYPoj8-D-150" value="" style="edgeStyle=orthogonalEdgeStyle;rounded=0;orthogonalLoop=1;jettySize=auto;html=1;" edge="1" parent="xdyBY22--xmkdYPoj8-D-67" source="xdyBY22--xmkdYPoj8-D-71" target="xdyBY22--xmkdYPoj8-D-149">
          <mxGeometry relative="1" as="geometry" />
        </mxCell>
        <mxCell id="xdyBY22--xmkdYPoj8-D-71" value="Hiển thị lịch chiếu" style="" vertex="1" parent="xdyBY22--xmkdYPoj8-D-67">
          <mxGeometry x="40" y="100" width="110" height="50" as="geometry" />
        </mxCell>
        <mxCell id="xdyBY22--xmkdYPoj8-D-98" value="" style="edgeStyle=orthogonalEdgeStyle;rounded=0;orthogonalLoop=1;jettySize=auto;html=1;" edge="1" parent="xdyBY22--xmkdYPoj8-D-67" source="xdyBY22--xmkdYPoj8-D-78">
          <mxGeometry relative="1" as="geometry">
            <mxPoint x="330" y="383.9999999999998" as="targetPoint" />
          </mxGeometry>
        </mxCell>
        <mxCell id="xdyBY22--xmkdYPoj8-D-78" value="Xác nhận giờ chiếu" style="rounded=0;whiteSpace=wrap;html=1;" vertex="1" parent="xdyBY22--xmkdYPoj8-D-67">
          <mxGeometry x="270" y="304" width="120" height="46" as="geometry" />
        </mxCell>
        <mxCell id="xdyBY22--xmkdYPoj8-D-91" value="" style="ellipse;shape=startState;fillColor=#000000;strokeColor=#ff0000;" vertex="1" parent="xdyBY22--xmkdYPoj8-D-67">
          <mxGeometry x="315" y="380" width="30" height="30" as="geometry" />
        </mxCell>
        <mxCell id="xdyBY22--xmkdYPoj8-D-158" value="" style="edgeStyle=orthogonalEdgeStyle;rounded=0;orthogonalLoop=1;jettySize=auto;html=1;" edge="1" parent="xdyBY22--xmkdYPoj8-D-67" source="xdyBY22--xmkdYPoj8-D-149" target="xdyBY22--xmkdYPoj8-D-154">
          <mxGeometry relative="1" as="geometry" />
        </mxCell>
        <mxCell id="xdyBY22--xmkdYPoj8-D-149" value="Chọn lịch chiếu" style="" vertex="1" parent="xdyBY22--xmkdYPoj8-D-67">
          <mxGeometry x="230" y="100" width="110" height="50" as="geometry" />
        </mxCell>
        <mxCell id="xdyBY22--xmkdYPoj8-D-153" value="Xác nhận" style="text;html=1;align=center;verticalAlign=middle;whiteSpace=wrap;rounded=0;" vertex="1" parent="xdyBY22--xmkdYPoj8-D-67">
          <mxGeometry x="340" y="230" width="60" height="30" as="geometry" />
        </mxCell>
        <mxCell id="xdyBY22--xmkdYPoj8-D-156" style="edgeStyle=orthogonalEdgeStyle;rounded=0;orthogonalLoop=1;jettySize=auto;html=1;" edge="1" parent="xdyBY22--xmkdYPoj8-D-67" source="xdyBY22--xmkdYPoj8-D-154">
          <mxGeometry relative="1" as="geometry">
            <mxPoint x="180" y="130" as="targetPoint" />
          </mxGeometry>
        </mxCell>
        <mxCell id="xdyBY22--xmkdYPoj8-D-159" style="edgeStyle=orthogonalEdgeStyle;rounded=0;orthogonalLoop=1;jettySize=auto;html=1;" edge="1" parent="xdyBY22--xmkdYPoj8-D-67" source="xdyBY22--xmkdYPoj8-D-154">
          <mxGeometry relative="1" as="geometry">
            <mxPoint x="330" y="300" as="targetPoint" />
          </mxGeometry>
        </mxCell>
        <mxCell id="xdyBY22--xmkdYPoj8-D-154" value="" style="rhombus;whiteSpace=wrap;html=1;" vertex="1" parent="xdyBY22--xmkdYPoj8-D-67">
          <mxGeometry x="260" y="200" width="50" height="40" as="geometry" />
        </mxCell>
        <mxCell id="xdyBY22--xmkdYPoj8-D-157" value="Hủy" style="text;html=1;align=center;verticalAlign=middle;whiteSpace=wrap;rounded=0;" vertex="1" parent="xdyBY22--xmkdYPoj8-D-67">
          <mxGeometry x="175" y="230" width="60" height="30" as="geometry" />
        </mxCell>
        <mxCell id="xdyBY22--xmkdYPoj8-D-116" value="Biểu đồ hành động tìm kiếm phim" style="swimlane;whiteSpace=wrap" vertex="1" parent="1">
          <mxGeometry x="1080" y="156" width="580" height="514" as="geometry" />
        </mxCell>
        <mxCell id="xdyBY22--xmkdYPoj8-D-117" value="" style="ellipse;shape=startState;fillColor=#000000;strokeColor=#ff0000;" vertex="1" parent="xdyBY22--xmkdYPoj8-D-116">
          <mxGeometry x="280" y="40" width="30" height="30" as="geometry" />
        </mxCell>
        <mxCell id="xdyBY22--xmkdYPoj8-D-118" value="" style="edgeStyle=elbowEdgeStyle;elbow=horizontal;verticalAlign=bottom;endArrow=open;endSize=8;strokeColor=#FF0000;endFill=1;rounded=0" edge="1" parent="xdyBY22--xmkdYPoj8-D-116" source="xdyBY22--xmkdYPoj8-D-117" target="xdyBY22--xmkdYPoj8-D-120">
          <mxGeometry x="100" y="40" as="geometry">
            <mxPoint x="115" y="110" as="targetPoint" />
          </mxGeometry>
        </mxCell>
        <mxCell id="xdyBY22--xmkdYPoj8-D-119" value="" style="edgeStyle=orthogonalEdgeStyle;rounded=0;orthogonalLoop=1;jettySize=auto;html=1;" edge="1" parent="xdyBY22--xmkdYPoj8-D-116" source="xdyBY22--xmkdYPoj8-D-120" target="xdyBY22--xmkdYPoj8-D-122">
          <mxGeometry relative="1" as="geometry" />
        </mxCell>
        <mxCell id="xdyBY22--xmkdYPoj8-D-120" value="Nhập tên phim,&#xa;diễn viên" style="" vertex="1" parent="xdyBY22--xmkdYPoj8-D-116">
          <mxGeometry x="240" y="100" width="110" height="50" as="geometry" />
        </mxCell>
        <mxCell id="xdyBY22--xmkdYPoj8-D-121" style="edgeStyle=orthogonalEdgeStyle;rounded=0;orthogonalLoop=1;jettySize=auto;html=1;entryX=1.003;entryY=0.361;entryDx=0;entryDy=0;entryPerimeter=0;" edge="1" parent="xdyBY22--xmkdYPoj8-D-116" source="xdyBY22--xmkdYPoj8-D-122" target="xdyBY22--xmkdYPoj8-D-120">
          <mxGeometry relative="1" as="geometry">
            <mxPoint x="480" y="114" as="targetPoint" />
            <Array as="points">
              <mxPoint x="481" y="210" />
              <mxPoint x="481" y="114" />
              <mxPoint x="350" y="114" />
            </Array>
          </mxGeometry>
        </mxCell>
        <mxCell id="xdyBY22--xmkdYPoj8-D-122" value="" style="rhombus;whiteSpace=wrap;html=1;" vertex="1" parent="xdyBY22--xmkdYPoj8-D-116">
          <mxGeometry x="273.75" y="190" width="42.5" height="40" as="geometry" />
        </mxCell>
        <mxCell id="xdyBY22--xmkdYPoj8-D-123" value="Không thấy" style="text;html=1;align=center;verticalAlign=middle;whiteSpace=wrap;rounded=0;" vertex="1" parent="xdyBY22--xmkdYPoj8-D-116">
          <mxGeometry x="370" y="170" width="80" height="30" as="geometry" />
        </mxCell>
        <mxCell id="xdyBY22--xmkdYPoj8-D-124" value="" style="edgeStyle=orthogonalEdgeStyle;rounded=0;orthogonalLoop=1;jettySize=auto;html=1;" edge="1" parent="xdyBY22--xmkdYPoj8-D-116" source="xdyBY22--xmkdYPoj8-D-125" target="xdyBY22--xmkdYPoj8-D-128">
          <mxGeometry relative="1" as="geometry" />
        </mxCell>
        <mxCell id="xdyBY22--xmkdYPoj8-D-125" value="Chọn phim" style="rounded=0;whiteSpace=wrap;html=1;" vertex="1" parent="xdyBY22--xmkdYPoj8-D-116">
          <mxGeometry x="240" y="304" width="120" height="46" as="geometry" />
        </mxCell>
        <mxCell id="xdyBY22--xmkdYPoj8-D-126" value="Tìm thấy" style="text;html=1;align=center;verticalAlign=middle;whiteSpace=wrap;rounded=0;" vertex="1" parent="xdyBY22--xmkdYPoj8-D-116">
          <mxGeometry x="309.25" y="244" width="80" height="30" as="geometry" />
        </mxCell>
        <mxCell id="xdyBY22--xmkdYPoj8-D-127" value="" style="edgeStyle=orthogonalEdgeStyle;rounded=0;orthogonalLoop=1;jettySize=auto;html=1;" edge="1" parent="xdyBY22--xmkdYPoj8-D-116" source="xdyBY22--xmkdYPoj8-D-128">
          <mxGeometry relative="1" as="geometry">
            <mxPoint x="300" y="484" as="targetPoint" />
          </mxGeometry>
        </mxCell>
        <mxCell id="xdyBY22--xmkdYPoj8-D-128" value="Thông tin phim" style="rounded=0;whiteSpace=wrap;html=1;" vertex="1" parent="xdyBY22--xmkdYPoj8-D-116">
          <mxGeometry x="240" y="384" width="120" height="60" as="geometry" />
        </mxCell>
        <mxCell id="xdyBY22--xmkdYPoj8-D-129" value="" style="ellipse;shape=startState;fillColor=#000000;strokeColor=#ff0000;" vertex="1" parent="xdyBY22--xmkdYPoj8-D-116">
          <mxGeometry x="285" y="484" width="30" height="30" as="geometry" />
        </mxCell>
        <mxCell id="xdyBY22--xmkdYPoj8-D-130" style="edgeStyle=orthogonalEdgeStyle;rounded=0;orthogonalLoop=1;jettySize=auto;html=1;entryX=0.457;entryY=0.047;entryDx=0;entryDy=0;entryPerimeter=0;" edge="1" parent="xdyBY22--xmkdYPoj8-D-116" source="xdyBY22--xmkdYPoj8-D-122" target="xdyBY22--xmkdYPoj8-D-125">
          <mxGeometry relative="1" as="geometry" />
        </mxCell>
        <mxCell id="xdyBY22--xmkdYPoj8-D-161" value="Biểu đồ hành động tìm lịch chiếu" style="swimlane;whiteSpace=wrap" vertex="1" parent="1">
          <mxGeometry x="770" y="910" width="450" height="420" as="geometry" />
        </mxCell>
        <mxCell id="xdyBY22--xmkdYPoj8-D-162" value="" style="ellipse;shape=startState;fillColor=#000000;strokeColor=#ff0000;" vertex="1" parent="xdyBY22--xmkdYPoj8-D-161">
          <mxGeometry x="80" y="40" width="30" height="30" as="geometry" />
        </mxCell>
        <mxCell id="xdyBY22--xmkdYPoj8-D-163" value="" style="edgeStyle=elbowEdgeStyle;elbow=horizontal;verticalAlign=bottom;endArrow=open;endSize=8;strokeColor=#FF0000;endFill=1;rounded=0" edge="1" parent="xdyBY22--xmkdYPoj8-D-161" source="xdyBY22--xmkdYPoj8-D-162" target="xdyBY22--xmkdYPoj8-D-165">
          <mxGeometry x="100" y="40" as="geometry">
            <mxPoint x="115" y="110" as="targetPoint" />
          </mxGeometry>
        </mxCell>
        <mxCell id="xdyBY22--xmkdYPoj8-D-164" value="" style="edgeStyle=orthogonalEdgeStyle;rounded=0;orthogonalLoop=1;jettySize=auto;html=1;" edge="1" parent="xdyBY22--xmkdYPoj8-D-161" source="xdyBY22--xmkdYPoj8-D-165" target="xdyBY22--xmkdYPoj8-D-170">
          <mxGeometry relative="1" as="geometry" />
        </mxCell>
        <mxCell id="xdyBY22--xmkdYPoj8-D-165" value="Nhập các trường tìm&#xa;kiếm" style="" vertex="1" parent="xdyBY22--xmkdYPoj8-D-161">
          <mxGeometry x="40" y="100" width="110" height="50" as="geometry" />
        </mxCell>
        <mxCell id="xdyBY22--xmkdYPoj8-D-166" value="" style="edgeStyle=orthogonalEdgeStyle;rounded=0;orthogonalLoop=1;jettySize=auto;html=1;" edge="1" parent="xdyBY22--xmkdYPoj8-D-161" source="xdyBY22--xmkdYPoj8-D-167">
          <mxGeometry relative="1" as="geometry">
            <mxPoint x="330" y="383.9999999999998" as="targetPoint" />
          </mxGeometry>
        </mxCell>
        <mxCell id="xdyBY22--xmkdYPoj8-D-167" value="Hiển thị lịch chiếu" style="rounded=0;whiteSpace=wrap;html=1;" vertex="1" parent="xdyBY22--xmkdYPoj8-D-161">
          <mxGeometry x="270" y="304" width="120" height="46" as="geometry" />
        </mxCell>
        <mxCell id="xdyBY22--xmkdYPoj8-D-168" value="" style="ellipse;shape=startState;fillColor=#000000;strokeColor=#ff0000;" vertex="1" parent="xdyBY22--xmkdYPoj8-D-161">
          <mxGeometry x="315" y="380" width="30" height="30" as="geometry" />
        </mxCell>
        <mxCell id="xdyBY22--xmkdYPoj8-D-169" value="" style="edgeStyle=orthogonalEdgeStyle;rounded=0;orthogonalLoop=1;jettySize=auto;html=1;" edge="1" parent="xdyBY22--xmkdYPoj8-D-161" source="xdyBY22--xmkdYPoj8-D-170" target="xdyBY22--xmkdYPoj8-D-174">
          <mxGeometry relative="1" as="geometry" />
        </mxCell>
        <mxCell id="xdyBY22--xmkdYPoj8-D-170" value="Hiển thị lịch chiếu" style="" vertex="1" parent="xdyBY22--xmkdYPoj8-D-161">
          <mxGeometry x="230" y="100" width="110" height="50" as="geometry" />
        </mxCell>
        <mxCell id="xdyBY22--xmkdYPoj8-D-171" value="Xác nhận" style="text;html=1;align=center;verticalAlign=middle;whiteSpace=wrap;rounded=0;" vertex="1" parent="xdyBY22--xmkdYPoj8-D-161">
          <mxGeometry x="340" y="230" width="60" height="30" as="geometry" />
        </mxCell>
        <mxCell id="xdyBY22--xmkdYPoj8-D-173" style="edgeStyle=orthogonalEdgeStyle;rounded=0;orthogonalLoop=1;jettySize=auto;html=1;" edge="1" parent="xdyBY22--xmkdYPoj8-D-161" source="xdyBY22--xmkdYPoj8-D-174">
          <mxGeometry relative="1" as="geometry">
            <mxPoint x="330" y="300" as="targetPoint" />
          </mxGeometry>
        </mxCell>
        <mxCell id="xdyBY22--xmkdYPoj8-D-177" style="edgeStyle=orthogonalEdgeStyle;rounded=0;orthogonalLoop=1;jettySize=auto;html=1;" edge="1" parent="xdyBY22--xmkdYPoj8-D-161" source="xdyBY22--xmkdYPoj8-D-174" target="xdyBY22--xmkdYPoj8-D-165">
          <mxGeometry relative="1" as="geometry">
            <mxPoint x="100" y="220" as="targetPoint" />
          </mxGeometry>
        </mxCell>
        <mxCell id="xdyBY22--xmkdYPoj8-D-174" value="" style="rhombus;whiteSpace=wrap;html=1;" vertex="1" parent="xdyBY22--xmkdYPoj8-D-161">
          <mxGeometry x="260" y="200" width="50" height="40" as="geometry" />
        </mxCell>
        <mxCell id="xdyBY22--xmkdYPoj8-D-175" value="Hủy" style="text;html=1;align=center;verticalAlign=middle;whiteSpace=wrap;rounded=0;" vertex="1" parent="xdyBY22--xmkdYPoj8-D-161">
          <mxGeometry x="175" y="230" width="60" height="30" as="geometry" />
        </mxCell>
        <mxCell id="xdyBY22--xmkdYPoj8-D-178" value="Biểu đồ hành động thanh toán" style="swimlane;whiteSpace=wrap" vertex="1" parent="1">
          <mxGeometry x="1060" y="920" width="560" height="430" as="geometry" />
        </mxCell>
        <mxCell id="xdyBY22--xmkdYPoj8-D-179" value="" style="ellipse;shape=startState;fillColor=#000000;strokeColor=#ff0000;" vertex="1" parent="xdyBY22--xmkdYPoj8-D-178">
          <mxGeometry x="80" y="40" width="30" height="30" as="geometry" />
        </mxCell>
        <mxCell id="xdyBY22--xmkdYPoj8-D-180" value="" style="edgeStyle=elbowEdgeStyle;elbow=horizontal;verticalAlign=bottom;endArrow=open;endSize=8;strokeColor=#FF0000;endFill=1;rounded=0" edge="1" parent="xdyBY22--xmkdYPoj8-D-178" source="xdyBY22--xmkdYPoj8-D-179" target="xdyBY22--xmkdYPoj8-D-182">
          <mxGeometry x="100" y="40" as="geometry">
            <mxPoint x="115" y="110" as="targetPoint" />
          </mxGeometry>
        </mxCell>
        <mxCell id="xdyBY22--xmkdYPoj8-D-181" value="" style="edgeStyle=orthogonalEdgeStyle;rounded=0;orthogonalLoop=1;jettySize=auto;html=1;" edge="1" parent="xdyBY22--xmkdYPoj8-D-178" source="xdyBY22--xmkdYPoj8-D-182" target="xdyBY22--xmkdYPoj8-D-187">
          <mxGeometry relative="1" as="geometry" />
        </mxCell>
        <mxCell id="xdyBY22--xmkdYPoj8-D-182" value="Hiển thị phương thức&#xa;thanh toán" style="" vertex="1" parent="xdyBY22--xmkdYPoj8-D-178">
          <mxGeometry x="40" y="100" width="120" height="50" as="geometry" />
        </mxCell>
        <mxCell id="xdyBY22--xmkdYPoj8-D-185" value="" style="ellipse;shape=startState;fillColor=#000000;strokeColor=#ff0000;" vertex="1" parent="xdyBY22--xmkdYPoj8-D-178">
          <mxGeometry x="270" y="390" width="30" height="30" as="geometry" />
        </mxCell>
        <mxCell id="xdyBY22--xmkdYPoj8-D-196" value="" style="edgeStyle=orthogonalEdgeStyle;rounded=0;orthogonalLoop=1;jettySize=auto;html=1;" edge="1" parent="xdyBY22--xmkdYPoj8-D-178" source="xdyBY22--xmkdYPoj8-D-187" target="xdyBY22--xmkdYPoj8-D-193">
          <mxGeometry relative="1" as="geometry" />
        </mxCell>
        <mxCell id="xdyBY22--xmkdYPoj8-D-187" value="Chọn phương thức" style="" vertex="1" parent="xdyBY22--xmkdYPoj8-D-178">
          <mxGeometry x="230" y="100" width="110" height="50" as="geometry" />
        </mxCell>
        <mxCell id="xdyBY22--xmkdYPoj8-D-195" value="" style="edgeStyle=orthogonalEdgeStyle;rounded=0;orthogonalLoop=1;jettySize=auto;html=1;" edge="1" parent="xdyBY22--xmkdYPoj8-D-178" source="xdyBY22--xmkdYPoj8-D-193" target="xdyBY22--xmkdYPoj8-D-194">
          <mxGeometry relative="1" as="geometry" />
        </mxCell>
        <mxCell id="xdyBY22--xmkdYPoj8-D-193" value="Điền thông tin thanh toán" style="rounded=0;whiteSpace=wrap;html=1;" vertex="1" parent="xdyBY22--xmkdYPoj8-D-178">
          <mxGeometry x="400" y="95" width="120" height="60" as="geometry" />
        </mxCell>
        <mxCell id="xdyBY22--xmkdYPoj8-D-198" value="" style="edgeStyle=orthogonalEdgeStyle;rounded=0;orthogonalLoop=1;jettySize=auto;html=1;" edge="1" parent="xdyBY22--xmkdYPoj8-D-178" source="xdyBY22--xmkdYPoj8-D-194" target="xdyBY22--xmkdYPoj8-D-197">
          <mxGeometry relative="1" as="geometry" />
        </mxCell>
        <mxCell id="xdyBY22--xmkdYPoj8-D-194" value="Tiến hành thanh toán" style="rounded=0;whiteSpace=wrap;html=1;" vertex="1" parent="xdyBY22--xmkdYPoj8-D-178">
          <mxGeometry x="400" y="210" width="120" height="60" as="geometry" />
        </mxCell>
        <mxCell id="xdyBY22--xmkdYPoj8-D-200" value="" style="edgeStyle=orthogonalEdgeStyle;rounded=0;orthogonalLoop=1;jettySize=auto;html=1;" edge="1" parent="xdyBY22--xmkdYPoj8-D-178" source="xdyBY22--xmkdYPoj8-D-197" target="xdyBY22--xmkdYPoj8-D-199">
          <mxGeometry relative="1" as="geometry" />
        </mxCell>
        <mxCell id="xdyBY22--xmkdYPoj8-D-202" style="edgeStyle=orthogonalEdgeStyle;rounded=0;orthogonalLoop=1;jettySize=auto;html=1;entryX=0.562;entryY=1.06;entryDx=0;entryDy=0;entryPerimeter=0;" edge="1" parent="xdyBY22--xmkdYPoj8-D-178" source="xdyBY22--xmkdYPoj8-D-197" target="xdyBY22--xmkdYPoj8-D-182">
          <mxGeometry relative="1" as="geometry">
            <mxPoint x="110" y="240" as="targetPoint" />
          </mxGeometry>
        </mxCell>
        <mxCell id="xdyBY22--xmkdYPoj8-D-197" value="" style="rhombus;whiteSpace=wrap;html=1;" vertex="1" parent="xdyBY22--xmkdYPoj8-D-178">
          <mxGeometry x="258.75" y="215" width="52.5" height="50" as="geometry" />
        </mxCell>
        <mxCell id="xdyBY22--xmkdYPoj8-D-206" value="" style="edgeStyle=orthogonalEdgeStyle;rounded=0;orthogonalLoop=1;jettySize=auto;html=1;" edge="1" parent="xdyBY22--xmkdYPoj8-D-178" source="xdyBY22--xmkdYPoj8-D-199" target="xdyBY22--xmkdYPoj8-D-185">
          <mxGeometry relative="1" as="geometry" />
        </mxCell>
        <mxCell id="xdyBY22--xmkdYPoj8-D-199" value="Thanh toán thành công" style="whiteSpace=wrap;html=1;" vertex="1" parent="xdyBY22--xmkdYPoj8-D-178">
          <mxGeometry x="225" y="300" width="120" height="60" as="geometry" />
        </mxCell>
        <mxCell id="xdyBY22--xmkdYPoj8-D-203" value="Đồng ý" style="text;html=1;align=center;verticalAlign=middle;whiteSpace=wrap;rounded=0;" vertex="1" parent="xdyBY22--xmkdYPoj8-D-178">
          <mxGeometry x="300" y="260" width="60" height="30" as="geometry" />
        </mxCell>
        <mxCell id="xdyBY22--xmkdYPoj8-D-204" value="Hủy" style="text;html=1;align=center;verticalAlign=middle;whiteSpace=wrap;rounded=0;" vertex="1" parent="xdyBY22--xmkdYPoj8-D-178">
          <mxGeometry x="170" y="260" width="60" height="30" as="geometry" />
        </mxCell>
        <mxCell id="xdyBY22--xmkdYPoj8-D-207" value="Biểu đồ hành động đặt vé xem phim" style="swimlane;whiteSpace=wrap;fontStyle=4" vertex="1" parent="1">
          <mxGeometry x="1790" y="210" width="610" height="640" as="geometry" />
        </mxCell>
        <mxCell id="xdyBY22--xmkdYPoj8-D-208" value="" style="ellipse;shape=startState;fillColor=#000000;strokeColor=#ff0000;" vertex="1" parent="xdyBY22--xmkdYPoj8-D-207">
          <mxGeometry x="80" y="40" width="30" height="30" as="geometry" />
        </mxCell>
        <mxCell id="xdyBY22--xmkdYPoj8-D-209" value="" style="edgeStyle=elbowEdgeStyle;elbow=horizontal;verticalAlign=bottom;endArrow=open;endSize=8;strokeColor=#FF0000;endFill=1;rounded=0" edge="1" parent="xdyBY22--xmkdYPoj8-D-207" source="xdyBY22--xmkdYPoj8-D-208">
          <mxGeometry x="100" y="40" as="geometry">
            <mxPoint x="95.28571428571422" y="100" as="targetPoint" />
          </mxGeometry>
        </mxCell>
        <mxCell id="xdyBY22--xmkdYPoj8-D-230" value="" style="edgeStyle=orthogonalEdgeStyle;rounded=0;orthogonalLoop=1;jettySize=auto;html=1;" edge="1" parent="xdyBY22--xmkdYPoj8-D-207" source="xdyBY22--xmkdYPoj8-D-228" target="xdyBY22--xmkdYPoj8-D-229">
          <mxGeometry relative="1" as="geometry" />
        </mxCell>
        <mxCell id="xdyBY22--xmkdYPoj8-D-228" value="Chọn phim" style="rounded=0;whiteSpace=wrap;html=1;" vertex="1" parent="xdyBY22--xmkdYPoj8-D-207">
          <mxGeometry x="35" y="100" width="120" height="60" as="geometry" />
        </mxCell>
        <mxCell id="xdyBY22--xmkdYPoj8-D-234" value="" style="edgeStyle=orthogonalEdgeStyle;rounded=0;orthogonalLoop=1;jettySize=auto;html=1;" edge="1" parent="xdyBY22--xmkdYPoj8-D-207" source="xdyBY22--xmkdYPoj8-D-229" target="xdyBY22--xmkdYPoj8-D-233">
          <mxGeometry relative="1" as="geometry" />
        </mxCell>
        <mxCell id="xdyBY22--xmkdYPoj8-D-229" value="Chọn lịch chiếu" style="whiteSpace=wrap;html=1;rounded=0;" vertex="1" parent="xdyBY22--xmkdYPoj8-D-207">
          <mxGeometry x="235" y="100" width="120" height="60" as="geometry" />
        </mxCell>
        <mxCell id="xdyBY22--xmkdYPoj8-D-236" value="" style="edgeStyle=orthogonalEdgeStyle;rounded=0;orthogonalLoop=1;jettySize=auto;html=1;" edge="1" parent="xdyBY22--xmkdYPoj8-D-207" source="xdyBY22--xmkdYPoj8-D-233" target="xdyBY22--xmkdYPoj8-D-235">
          <mxGeometry relative="1" as="geometry" />
        </mxCell>
        <mxCell id="xdyBY22--xmkdYPoj8-D-233" value="Chọn ghế" style="whiteSpace=wrap;html=1;rounded=0;" vertex="1" parent="xdyBY22--xmkdYPoj8-D-207">
          <mxGeometry x="435" y="100" width="120" height="60" as="geometry" />
        </mxCell>
        <mxCell id="xdyBY22--xmkdYPoj8-D-240" style="edgeStyle=orthogonalEdgeStyle;rounded=0;orthogonalLoop=1;jettySize=auto;html=1;" edge="1" parent="xdyBY22--xmkdYPoj8-D-207" source="xdyBY22--xmkdYPoj8-D-235">
          <mxGeometry relative="1" as="geometry">
            <mxPoint x="400" y="134" as="targetPoint" />
          </mxGeometry>
        </mxCell>
        <mxCell id="xdyBY22--xmkdYPoj8-D-245" style="edgeStyle=orthogonalEdgeStyle;rounded=0;orthogonalLoop=1;jettySize=auto;html=1;" edge="1" parent="xdyBY22--xmkdYPoj8-D-207" source="xdyBY22--xmkdYPoj8-D-235" target="xdyBY22--xmkdYPoj8-D-243">
          <mxGeometry relative="1" as="geometry">
            <mxPoint x="570" y="300" as="targetPoint" />
            <Array as="points">
              <mxPoint x="570" y="207" />
              <mxPoint x="570" y="290" />
            </Array>
          </mxGeometry>
        </mxCell>
        <mxCell id="xdyBY22--xmkdYPoj8-D-235" value="" style="rhombus;whiteSpace=wrap;html=1;rounded=0;" vertex="1" parent="xdyBY22--xmkdYPoj8-D-207">
          <mxGeometry x="472.5" y="194" width="45" height="26" as="geometry" />
        </mxCell>
        <mxCell id="xdyBY22--xmkdYPoj8-D-241" value="Xác nhận" style="text;html=1;align=center;verticalAlign=middle;whiteSpace=wrap;rounded=0;" vertex="1" parent="xdyBY22--xmkdYPoj8-D-207">
          <mxGeometry x="517.5" y="175" width="60" height="30" as="geometry" />
        </mxCell>
        <mxCell id="xdyBY22--xmkdYPoj8-D-242" value="Hủy" style="text;html=1;align=center;verticalAlign=middle;whiteSpace=wrap;rounded=0;" vertex="1" parent="xdyBY22--xmkdYPoj8-D-207">
          <mxGeometry x="410" y="175" width="60" height="30" as="geometry" />
        </mxCell>
        <mxCell id="xdyBY22--xmkdYPoj8-D-247" value="" style="edgeStyle=orthogonalEdgeStyle;rounded=0;orthogonalLoop=1;jettySize=auto;html=1;" edge="1" parent="xdyBY22--xmkdYPoj8-D-207" source="xdyBY22--xmkdYPoj8-D-243" target="xdyBY22--xmkdYPoj8-D-246">
          <mxGeometry relative="1" as="geometry" />
        </mxCell>
        <mxCell id="xdyBY22--xmkdYPoj8-D-243" value="Điền thông tin KH" style="rounded=0;whiteSpace=wrap;html=1;" vertex="1" parent="xdyBY22--xmkdYPoj8-D-207">
          <mxGeometry x="435" y="260" width="120" height="60" as="geometry" />
        </mxCell>
        <mxCell id="xdyBY22--xmkdYPoj8-D-249" value="" style="edgeStyle=orthogonalEdgeStyle;rounded=0;orthogonalLoop=1;jettySize=auto;html=1;" edge="1" parent="xdyBY22--xmkdYPoj8-D-207" source="xdyBY22--xmkdYPoj8-D-246" target="xdyBY22--xmkdYPoj8-D-248">
          <mxGeometry relative="1" as="geometry" />
        </mxCell>
        <mxCell id="xdyBY22--xmkdYPoj8-D-246" value="Thanh toán" style="whiteSpace=wrap;html=1;rounded=0;" vertex="1" parent="xdyBY22--xmkdYPoj8-D-207">
          <mxGeometry x="435" y="350" width="120" height="60" as="geometry" />
        </mxCell>
        <mxCell id="xdyBY22--xmkdYPoj8-D-252" style="edgeStyle=orthogonalEdgeStyle;rounded=0;orthogonalLoop=1;jettySize=auto;html=1;entryX=1;entryY=0.5;entryDx=0;entryDy=0;" edge="1" parent="xdyBY22--xmkdYPoj8-D-207" target="xdyBY22--xmkdYPoj8-D-246">
          <mxGeometry relative="1" as="geometry">
            <mxPoint x="577.5" y="380" as="targetPoint" />
            <mxPoint x="517.5" y="495" as="sourcePoint" />
            <Array as="points">
              <mxPoint x="579" y="495" />
              <mxPoint x="579" y="380" />
            </Array>
          </mxGeometry>
        </mxCell>
        <mxCell id="xdyBY22--xmkdYPoj8-D-255" value="" style="edgeStyle=orthogonalEdgeStyle;rounded=0;orthogonalLoop=1;jettySize=auto;html=1;" edge="1" parent="xdyBY22--xmkdYPoj8-D-207" source="xdyBY22--xmkdYPoj8-D-248" target="xdyBY22--xmkdYPoj8-D-254">
          <mxGeometry relative="1" as="geometry" />
        </mxCell>
        <mxCell id="xdyBY22--xmkdYPoj8-D-248" value="" style="rhombus;whiteSpace=wrap;html=1;rounded=0;" vertex="1" parent="xdyBY22--xmkdYPoj8-D-207">
          <mxGeometry x="470" y="480" width="50" height="30" as="geometry" />
        </mxCell>
        <mxCell id="xdyBY22--xmkdYPoj8-D-253" value="Lỗi" style="text;html=1;align=center;verticalAlign=middle;whiteSpace=wrap;rounded=0;" vertex="1" parent="xdyBY22--xmkdYPoj8-D-207">
          <mxGeometry x="518" y="460" width="60" height="30" as="geometry" />
        </mxCell>
        <mxCell id="xdyBY22--xmkdYPoj8-D-258" style="edgeStyle=orthogonalEdgeStyle;rounded=0;orthogonalLoop=1;jettySize=auto;html=1;" edge="1" parent="xdyBY22--xmkdYPoj8-D-207" source="xdyBY22--xmkdYPoj8-D-254" target="xdyBY22--xmkdYPoj8-D-212">
          <mxGeometry relative="1" as="geometry" />
        </mxCell>
        <mxCell id="xdyBY22--xmkdYPoj8-D-254" value="Xác nhận đặt vé" style="whiteSpace=wrap;html=1;rounded=0;" vertex="1" parent="xdyBY22--xmkdYPoj8-D-207">
          <mxGeometry x="305" y="465" width="120" height="60" as="geometry" />
        </mxCell>
        <mxCell id="xdyBY22--xmkdYPoj8-D-256" value="Xong" style="text;html=1;align=center;verticalAlign=middle;whiteSpace=wrap;rounded=0;" vertex="1" parent="xdyBY22--xmkdYPoj8-D-207">
          <mxGeometry x="425" y="465" width="60" height="30" as="geometry" />
        </mxCell>
        <mxCell id="xdyBY22--xmkdYPoj8-D-212" value="q" style="ellipse;shape=startState;fillColor=#000000;strokeColor=#ff0000;" vertex="1" parent="xdyBY22--xmkdYPoj8-D-207">
          <mxGeometry x="350" y="590" width="30" height="30" as="geometry" />
        </mxCell>
      </root>
    </mxGraphModel>
  </diagram>
</mxfile>
